3 4 +
4
5 8 * 1 +
5 1 2 + 4 * + 3 -
2 3 ^
5 8 * 1 +
5 1 2 + 4 * + 3 -
3 2 %
4 2 %
1 2 + 4 * 5 + 3 -
1601627 5 *
2 3 + 3 * 100 9 - *
2 3 ^ 4 /
0 ~
-1 ~
0 0 |
0 1 |
1 0 |
1 1 |
0 0 &
0 1 &
1 0 &
1 1 &
0 0 ^
0 1 ^
1 0 ^
1 1 %
1 0 <<
1 1 <<
1 2 <<
1 3 <<
128 1 >>
128 2 >>
128 3 >>
128 4 >>
